﻿Ime,Prezime,BrojTelefona,DatumRodenja,BrojKreditneKartice,Stanje,TekstPoruke,DatumSlanja
Tvrtko I,Kotromanic,062409970,23-09-1999,1411965320008472,380,Vozdra raja,29-02-2016
Kulin,Kulinic,380568745,29-02-2000,1411965320008472,420,Dobar dan,14-10-2016
Prijezda,Kotromanic,885522,06-07-2008,1411965320008472,1490,Dobar dan,01-01-2017